{"playlists": {"href": "https://api.spotify.com/v1/search?query=Top+50+-+USA&type=playlist&offset=0&limit=20", "items": [{"collaborative": false, "description": "Your daily update of the most played tracks right now - USA.", "external_urls": {"spotify": "https://open.spotify.com/playlist/37i9dQZEVXbLRQDuF5jeBp"}, "href": "https://api.spotify.com/v1/playlists/37i9dQZEVXbLRQDuF5jeBp", "id": "37i9dQZEVXbLRQDuF5jeBp", "images": [{"height": null, "url": "https://charts-images.scdn.co/assets/locale_en/regional/daily/region_us_large.jpg", "width": null}], "name": "Top 50 - USA", "owner": {"display_name": "spotifycharts", "external_urls": {"spotify": "https://open.spotify.com/user/spotifycharts"}, "href": "https://api.spotify.com/v1/users/spotifycharts", "id": "spotifycharts", "type": "user", "uri": "spotify:user:spotifycharts"}, "primary_color": null, "public": null, "snapshot_id": "NjczMTg0MzA5LDAwMDAwMDAwMDAwMDAwMDAwMDAwMDAwMDAwMDAwMDAwMDAwMDY1NmU=", "tracks": {"href": "https://api.spotify.com/v1/playlists/37i9dQZEVXbLRQDuF5jeBp/tracks", "total": 50}, "type": "playlist", "uri": "spotify:playlist:37i9dQZEVXbLRQDuF5jeBp"}, {"collaborative": false, "description": "Top 50 US Viral Songs | EDM | Pop | Hip-Hop | Rock | Blues | Country | Classic. \u25b6\ufe0fboostyoursongs@gmail.com\u25c0\ufe0f", "external_urls": {"spotify": "https://open.spotify.com/playlist/6kjWcflO73o7JM7BYap5ym"}, "href": "https://api.spotify.com/v1/playlists/6kjWcflO73o7JM7BYap5ym", "id": "6kjWcflO73o7JM7BYap5ym", "images": [{"height": null, "url": "https://i.scdn.co/image/ab67706c0000bebb1b67fa4165f9c6da19688454", "width": null}], "name": "TOP 50 USA \ud83c\uddfa\ud83c\uddf8", "owner": {"display_name": "Josh La Trent", "external_urls": {"spotify": "https://open.spotify.com/user/qx9golbugq0qrb1cqbf06o477"}, "href": "https://api.spotify.com/v1/users/qx9golbugq0qrb1cqbf06o477", "id": "qx9golbugq0qrb1cqbf06o477", "type": "user", "uri": "spotify:user:qx9golbugq0qrb1cqbf06o477"}, "primary_color": null, "public": null, "snapshot_id": "MTMxLDYzOWI3YTQwMzNmOTBkN2NhOTFjZjQxMzg0MTlkODUwODg2M2Y0NjY=", "tracks": {"href": "https://api.spotify.com/v1/playlists/6kjWcflO73o7JM7BYap5ym/tracks", "total": 48}, "type": "playlist", "uri": "spotify:playlist:6kjWcflO73o7JM7BYap5ym"}, {"collaborative": false, "description": "Rap Hits 2021 - Drill Hits 2021 - Hip Hop Hits 2021 - Top 50 Usa - Top 50 Uk - Uk Rap - Rap Italiano \u26a1\ufe0f Contact: amp.playlist@gmail.com", "external_urls": {"spotify": "https://open.spotify.com/playlist/0G265dgBHonBSYm27tZR1g"}, "href": "https://api.spotify.com/v1/playlists/0G265dgBHonBSYm27tZR1g", "id": "0G265dgBHonBSYm27tZR1g", "images": [{"height": null, "url": "https://i.scdn.co/image/ab67706c0000bebbfdcb89e27281d98b59fc1811", "width": null}], "name": "Drill 2021 \ud83c\uddfa\ud83c\uddf8\ud83c\uddec\ud83c\udde7\ud83c\uddee\ud83c\uddf9 Best Of Uk Drill, Usa Drill & Italian Drill", "owner": {"display_name": "amp9397", "external_urls": {"spotify": "https://open.spotify.com/user/ujqpgmanktzo5zx9wvc99g791"}, "href": "https://api.spotify.com/v1/users/ujqpgmanktzo5zx9wvc99g791", "id": "ujqpgmanktzo5zx9wvc99g791", "type": "user", "uri": "spotify:user:ujqpgmanktzo5zx9wvc99g791"}, "primary_color": null, "public": null, "snapshot_id": "MTAwMyxiYWNhYWVlMGI4ODM4OWJlZGQ5YzFmMDhiOThhNjA0YzJiZGE1NTRm", "tracks": {"href": "https://api.spotify.com/v1/playlists/0G265dgBHonBSYm27tZR1g/tracks", "total": 60}, "type": "playlist", "uri": "spotify:playlist:0G265dgBHonBSYm27tZR1g"}, {"collaborative": false, "description": "Daily updated with most played songs in USA", "external_urls": {"spotify": "https://open.spotify.com/playlist/35pMFxG8cjdgqevqCOVPAr"}, "href": "https://api.spotify.com/v1/playlists/35pMFxG8cjdgqevqCOVPAr", "id": "35pMFxG8cjdgqevqCOVPAr", "images": [{"height": null, "url": "https://i.scdn.co/image/ab67706c0000bebb033f5a651ab7fc10a5995679", "width": null}], "name": "Top 50 USA -  Top 50 America - Top 50 United States", "owner": {"display_name": "Smelte", "external_urls": {"spotify": "https://open.spotify.com/user/fl9hr51zrzayw0rhii8u5akkc"}, "href": "https://api.spotify.com/v1/users/fl9hr51zrzayw0rhii8u5akkc", "id": "fl9hr51zrzayw0rhii8u5akkc", "type": "user", "uri": "spotify:user:fl9hr51zrzayw0rhii8u5akkc"}, "primary_color": null, "public": null, "snapshot_id": "ODU1LDdlZjA4MGM2NTdjYzAxYjg1N2I4ZjlmMjY3YTA1M2Y0NTcyNzUyZGM=", "tracks": {"href": "https://api.spotify.com/v1/playlists/35pMFxG8cjdgqevqCOVPAr/tracks", "total": 50}, "type": "playlist", "uri": "spotify:playlist:35pMFxG8cjdgqevqCOVPAr"}, {"collaborative": false, "description": "Your daily update of the most viral tracks right now - USA.", "external_urls": {"spotify": "https://open.spotify.com/playlist/37i9dQZEVXbKuaTI1Z1Afx"}, "href": "https://api.spotify.com/v1/playlists/37i9dQZEVXbKuaTI1Z1Afx", "id": "37i9dQZEVXbKuaTI1Z1Afx", "images": [{"height": null, "url": "https://charts-images.scdn.co/assets/locale_en/viral/daily/region_us_large.jpg", "width": null}], "name": "Viral 50 - USA", "owner": {"display_name": "spotifycharts", "external_urls": {"spotify": "https://open.spotify.com/user/spotifycharts"}, "href": "https://api.spotify.com/v1/users/spotifycharts", "id": "spotifycharts", "type": "user", "uri": "spotify:user:spotifycharts"}, "primary_color": null, "public": null, "snapshot_id": "NjczMTk4ODI5LDAwMDAwMDAwMDAwMDAwMDAwMDAwMDAwMDAwMDAwMDAwMDAwMDY1NmU=", "tracks": {"href": "https://api.spotify.com/v1/playlists/37i9dQZEVXbKuaTI1Z1Afx/tracks", "total": 50}, "type": "playlist", "uri": "spotify:playlist:37i9dQZEVXbKuaTI1Z1Afx"}, {"collaborative": false, "description": "In the next year, you will be able to find this playlist with the next title: Top 50 USA Songs 2022 (US Top Songs This Week 2022)", "external_urls": {"spotify": "https://open.spotify.com/playlist/1MvofyenbuSMequQbHKWyX"}, "href": "https://api.spotify.com/v1/playlists/1MvofyenbuSMequQbHKWyX", "id": "1MvofyenbuSMequQbHKWyX", "images": [{"height": null, "url": "https://i.scdn.co/image/ab67706c0000bebbc039a2a906d9aebeb115e448", "width": null}], "name": "Top 50 USA Songs 2021 (US Top Songs This Week 2021)", "owner": {"display_name": "redmusiccompany", "external_urls": {"spotify": "https://open.spotify.com/user/redmusiccompany"}, "href": "https://api.spotify.com/v1/users/redmusiccompany", "id": "redmusiccompany", "type": "user", "uri": "spotify:user:redmusiccompany"}, "primary_color": null, "public": null, "snapshot_id": "NTE4MiwyNmE5YTgzNzdjNTgzMWE1OGE2MDU3M2VjNGJmYzJmMDY2OGY4ZGFj", "tracks": {"href": "https://api.spotify.com/v1/playlists/1MvofyenbuSMequQbHKWyX/tracks", "total": 50}, "type": "playlist", "uri": "spotify:playlist:1MvofyenbuSMequQbHKWyX"}, {"collaborative": false, "description": "USA Top 50 - Top 50 USA - America Top 50 - US Top 50 - Top 50 America - USA Top 50", "external_urls": {"spotify": "https://open.spotify.com/playlist/4JgPn5zouXilXoM2v1Istn"}, "href": "https://api.spotify.com/v1/playlists/4JgPn5zouXilXoM2v1Istn", "id": "4JgPn5zouXilXoM2v1Istn", "images": [{"height": null, "url": "https://i.scdn.co/image/ab67706c0000bebbcd6ea4058a63e723aed9f31e", "width": null}], "name": "Top Hits USA | 2021", "owner": {"display_name": "Soave", "external_urls": {"spotify": "https://open.spotify.com/user/21ifzjxggdajdpc4w6iqxslkq"}, "href": "https://api.spotify.com/v1/users/21ifzjxggdajdpc4w6iqxslkq", "id": "21ifzjxggdajdpc4w6iqxslkq", "type": "user", "uri": "spotify:user:21ifzjxggdajdpc4w6iqxslkq"}, "primary_color": null, "public": null, "snapshot_id": "NTM2Miw0OWI5ODVkNjg3OGUzYmFhMmRkODFjYmE4NjI0YTRhMWUxZWIxN2Nk", "tracks": {"href": "https://api.spotify.com/v1/playlists/4JgPn5zouXilXoM2v1Istn/tracks", "total": 50}, "type": "playlist", "uri": "spotify:playlist:4JgPn5zouXilXoM2v1Istn"}, {"collaborative": false, "description": "Top 50 USA, USA Top 50, Top Hits USA, USA Hits, Top USA Hits, Top Hits, Viral Hits, Viral Music, Top 50 Songs, Top 50 Pop Music, Top 50 Trap Music, Top 50 Dance Music, Top 50 House Music. Updated Every Week!", "external_urls": {"spotify": "https://open.spotify.com/playlist/1j3sc7MqJgrJ44GQD7S84K"}, "href": "https://api.spotify.com/v1/playlists/1j3sc7MqJgrJ44GQD7S84K", "id": "1j3sc7MqJgrJ44GQD7S84K", "images": [{"height": null, "url": "https://i.scdn.co/image/ab67706c0000bebb128d1d7a5a28a258bb60c2de", "width": null}], "name": "Top 50 USA - USA Top 50 - Top Hits USA - USA Hits", "owner": {"display_name": "Epic", "external_urls": {"spotify": "https://open.spotify.com/user/455wdr9yh02q4qf3f21hqtpgf"}, "href": "https://api.spotify.com/v1/users/455wdr9yh02q4qf3f21hqtpgf", "id": "455wdr9yh02q4qf3f21hqtpgf", "type": "user", "uri": "spotify:user:455wdr9yh02q4qf3f21hqtpgf"}, "primary_color": null, "public": null, "snapshot_id": "OTYsYmE4ZTliMjc2NGZjZmYxY2Q1NWM2MTg3MzZiYjVhYWNmZjk0ZDczNQ==", "tracks": {"href": "https://api.spotify.com/v1/playlists/1j3sc7MqJgrJ44GQD7S84K/tracks", "total": 50}, "type": "playlist", "uri": "spotify:playlist:1j3sc7MqJgrJ44GQD7S84K"}, {"collaborative": false, "description": "", "external_urls": {"spotify": "https://open.spotify.com/playlist/356RdloI1Y4ozLdUTh0FAU"}, "href": "https://api.spotify.com/v1/playlists/356RdloI1Y4ozLdUTh0FAU", "id": "356RdloI1Y4ozLdUTh0FAU", "images": [{"height": null, "url": "https://i.scdn.co/image/ab67706c0000bebbf99c50a2184dc9f7e062a454", "width": null}], "name": "US Top 50 - Top 50 US - USA Top 50 - Top 50 USA - United States Top 50 - Top 50 United States", "owner": {"display_name": "Top USA", "external_urls": {"spotify": "https://open.spotify.com/user/nxuzwr3ncg3ks6f1iy1grrrvc"}, "href": "https://api.spotify.com/v1/users/nxuzwr3ncg3ks6f1iy1grrrvc", "id": "nxuzwr3ncg3ks6f1iy1grrrvc", "type": "user", "uri": "spotify:user:nxuzwr3ncg3ks6f1iy1grrrvc"}, "primary_color": null, "public": null, "snapshot_id": "NTYzNSw1NmJkNGQ4MjBlYmVjZmM4NTA0NzQwZWJkZmNlMzY3ZTE0MTYzNzhl", "tracks": {"href": "https://api.spotify.com/v1/playlists/356RdloI1Y4ozLdUTh0FAU/tracks", "total": 109}, "type": "playlist", "uri": "spotify:playlist:356RdloI1Y4ozLdUTh0FAU"}, {"collaborative": false, "description": "Top hits from todays charts! Hot Hits Global brings you the Best New Viral top 50 USA, UK &amp; World charting hot hits! A few of yesterdays and Today's Top Hits across popular urban genres Pop | Rap | RnB | Trap and much more to discover! UPDATED regularly! Cover: Post Malone", "external_urls": {"spotify": "https://open.spotify.com/playlist/1M5nMYSRHYIJq1b9JrBWCG"}, "href": "https://api.spotify.com/v1/playlists/1M5nMYSRHYIJq1b9JrBWCG", "id": "1M5nMYSRHYIJq1b9JrBWCG", "images": [{"height": null, "url": "https://i.scdn.co/image/ab67706c0000bebb6ec72c36c7c0adb318bfd1ed", "width": null}], "name": "Hot Hits Global - Today's Top Hits 2021 (Pop Rap & RnB) Top Hits of Todays Music | Top Pop Hits |POP", "owner": {"display_name": "Lux Thugs", "external_urls": {"spotify": "https://open.spotify.com/user/41tkabkilyx2zkr8hlltyfmtg"}, "href": "https://api.spotify.com/v1/users/41tkabkilyx2zkr8hlltyfmtg", "id": "41tkabkilyx2zkr8hlltyfmtg", "type": "user", "uri": "spotify:user:41tkabkilyx2zkr8hlltyfmtg"}, "primary_color": null, "public": null, "snapshot_id": "NjI1NCxkOGRjNDMyNDkzYTA1ZWZmOWZhODRhYTNlNGMxZTE5MzljZDZhZTAz", "tracks": {"href": "https://api.spotify.com/v1/playlists/1M5nMYSRHYIJq1b9JrBWCG/tracks", "total": 100}, "type": "playlist", "uri": "spotify:playlist:1M5nMYSRHYIJq1b9JrBWCG"}, {"collaborative": false, "description": "CLEAN Rap + RnB Top hits from todays charts! Hot Hits Global brings you the Best CENSORED New Viral top 50 USA, UK &amp; World charting hot hits! A few of yesterdays and Today's Top Hits across popular urban genres Pop | Rap | RnB | Trap and much more to discover! UPDATED regularly! Clean Rap + RnB 2021", "external_urls": {"spotify": "https://open.spotify.com/playlist/4QjxmCeSjnB2EQfCq1F6mr"}, "href": "https://api.spotify.com/v1/playlists/4QjxmCeSjnB2EQfCq1F6mr", "id": "4QjxmCeSjnB2EQfCq1F6mr", "images": [{"height": null, "url": "https://i.scdn.co/image/ab67706c0000bebb2abfe0443a7ad673931d99c0", "width": null}], "name": "Clean Rap + RnB 2021 - Today's Top Hits (radio edits) CLEAN TRAP | CLEAN RnB | CLEAN POP | CLEAN R&B", "owner": {"display_name": "Lux Thugs", "external_urls": {"spotify": "https://open.spotify.com/user/41tkabkilyx2zkr8hlltyfmtg"}, "href": "https://api.spotify.com/v1/users/41tkabkilyx2zkr8hlltyfmtg", "id": "41tkabkilyx2zkr8hlltyfmtg", "type": "user", "uri": "spotify:user:41tkabkilyx2zkr8hlltyfmtg"}, "primary_color": null, "public": null, "snapshot_id": "MTY0Miw4NjhmYjczNmJiZDczNjI1YjQ0ZTE4ZGU4OWUxYTg5NDJkY2RjMjBj", "tracks": {"href": "https://api.spotify.com/v1/playlists/4QjxmCeSjnB2EQfCq1F6mr/tracks", "total": 110}, "type": "playlist", "uri": "spotify:playlist:4QjxmCeSjnB2EQfCq1F6mr"}, {"collaborative": false, "description": "Today&#x27;s hits charts in USA. Playlist Weekly updated. Calling My Phone - Lil Tjay, 6LACK | drivers license - Olivia Rodrigo | Bilboard Top 100 | USA Viral 50 | United States Viral 50 | Top 50 Single Charts USA | Trap | Rap | EDM | Top 100 USA | USA Top 100 | Biggest hits Unites States", "external_urls": {"spotify": "https://open.spotify.com/playlist/6SjN06zZBZpsCWJk2DwhDs"}, "href": "https://api.spotify.com/v1/playlists/6SjN06zZBZpsCWJk2DwhDs", "id": "6SjN06zZBZpsCWJk2DwhDs", "images": [{"height": null, "url": "https://i.scdn.co/image/ab67706c0000bebb907e7ec6e04094add8d9ff5b", "width": null}], "name": "United States Top 50 | Top 50 United States | New Music USA | Hot Hits USA 2021", "owner": {"display_name": "Viral Music ", "external_urls": {"spotify": "https://open.spotify.com/user/bxgtbmu29zea5sjxq5q9jfzq5"}, "href": "https://api.spotify.com/v1/users/bxgtbmu29zea5sjxq5q9jfzq5", "id": "bxgtbmu29zea5sjxq5q9jfzq5", "type": "user", "uri": "spotify:user:bxgtbmu29zea5sjxq5q9jfzq5"}, "primary_color": null, "public": null, "snapshot_id": "ODI5LDY4ZjA3ZTA4MTdjZjMzMzIwNTE0N2MyNmJjZWQ0NWIxMmEyMzk5NTM=", "tracks": {"href": "https://api.spotify.com/v1/playlists/6SjN06zZBZpsCWJk2DwhDs/tracks", "total": 57}, "type": "playlist", "uri": "spotify:playlist:6SjN06zZBZpsCWJk2DwhDs"}, {"collaborative": false, "description": "#42 is missing&#x2F;not on spotify ~ Garth Brooks - We Belong with Each Other", "external_urls": {"spotify": "https://open.spotify.com/playlist/74RHtajeFm5CxOWa7sj3N7"}, "href": "https://api.spotify.com/v1/playlists/74RHtajeFm5CxOWa7sj3N7", "id": "74RHtajeFm5CxOWa7sj3N7", "images": [{"height": 640, "url": "https://mosaic.scdn.co/640/ab67616d0000b273617108650a71387305475d4eab67616d0000b273a8c9f59905946acbfd280b60ab67616d0000b273d7d74af20c3a7ac6a0b7a60bab67616d0000b273da0fbf5a54052f21c8499556", "width": 640}, {"height": 300, "url": "https://mosaic.scdn.co/300/ab67616d0000b273617108650a71387305475d4eab67616d0000b273a8c9f59905946acbfd280b60ab67616d0000b273d7d74af20c3a7ac6a0b7a60bab67616d0000b273da0fbf5a54052f21c8499556", "width": 300}, {"height": 60, "url": "https://mosaic.scdn.co/60/ab67616d0000b273617108650a71387305475d4eab67616d0000b273a8c9f59905946acbfd280b60ab67616d0000b273d7d74af20c3a7ac6a0b7a60bab67616d0000b273da0fbf5a54052f21c8499556", "width": 60}], "name": "USA TOP 50 Country Hits", "owner": {"display_name": "thenameissnix", "external_urls": {"spotify": "https://open.spotify.com/user/thenameissnix"}, "href": "https://api.spotify.com/v1/users/thenameissnix", "id": "thenameissnix", "type": "user", "uri": "spotify:user:thenameissnix"}, "primary_color": null, "public": null, "snapshot_id": "MTM5OCxiMDYyYTg2Y2IyMjQ5NmM4ZTJlMzc1NWM4MzM1ZmQ4YmYyNGNjNjk2", "tracks": {"href": "https://api.spotify.com/v1/playlists/74RHtajeFm5CxOWa7sj3N7/tracks", "total": 49}, "type": "playlist", "uri": "spotify:playlist:74RHtajeFm5CxOWa7sj3N7"}, {"collaborative": false, "description": "The Top hits for todays music lovers! Best New Viral top 50 USA, UK and World top charting hot hits! Pop | Rap | RnB | and much more to discover! UPDATED daily with today's and a few of yesterdays top hits! feat Post Malone, French Montana, Travis Scott etc Top Hits Cover: Drake", "external_urls": {"spotify": "https://open.spotify.com/playlist/7JcJqAFXQO5UohzHAhvfmG"}, "href": "https://api.spotify.com/v1/playlists/7JcJqAFXQO5UohzHAhvfmG", "id": "7JcJqAFXQO5UohzHAhvfmG", "images": [{"height": null, "url": "https://i.scdn.co/image/ab67706c0000bebb2b05b3e8a970d63609a4d42b", "width": null}], "name": "Hot Hits UK - Today's Top Hits 2021 | Top POP Hits | Top Rap Hits | Top RnB | Top Trap Hits | UK Rap | Pop Music |", "owner": {"display_name": "Lux Thugs", "external_urls": {"spotify": "https://open.spotify.com/user/41tkabkilyx2zkr8hlltyfmtg"}, "href": "https://api.spotify.com/v1/users/41tkabkilyx2zkr8hlltyfmtg", "id": "41tkabkilyx2zkr8hlltyfmtg", "type": "user", "uri": "spotify:user:41tkabkilyx2zkr8hlltyfmtg"}, "primary_color": null, "public": null, "snapshot_id": "NjcwNCw1ZmY2NmUzYzIwZWIyNjk2MDE5M2U2ZDFiNmRhYTg5OTE1OTQwMDBh", "tracks": {"href": "https://api.spotify.com/v1/playlists/7JcJqAFXQO5UohzHAhvfmG/tracks", "total": 108}, "type": "playlist", "uri": "spotify:playlist:7JcJqAFXQO5UohzHAhvfmG"}, {"collaborative": false, "description": "Evolution - Top 50 Hits Entering The Singles And Radio Charts 1952-2009 In The UK, USA, Germany, Sweden, Australia, Canada And France&#x27;&#x27; Classics From Every Decade&#x27;&#x27; Scroll Down To Your favourites Or Listen Mixed &#x27;&#x27; A Trip Through Popular History, A Different Take On Melody And Hitradio &#x27;&#x27;", "external_urls": {"spotify": "https://open.spotify.com/playlist/05c2GLNRRtxUqGxydc1xFZ"}, "href": "https://api.spotify.com/v1/playlists/05c2GLNRRtxUqGxydc1xFZ", "id": "05c2GLNRRtxUqGxydc1xFZ", "images": [{"height": null, "url": "https://i.scdn.co/image/ab67706c0000bebbd70781e1ecd0ca85230a7ea4", "width": null}], "name": "Airwaves Square - '' All Top 50 Hits '' 60's, 70's, 80's, 90's, 2000's", "owner": {"display_name": "Airwaves Square", "external_urls": {"spotify": "https://open.spotify.com/user/nugglan"}, "href": "https://api.spotify.com/v1/users/nugglan", "id": "nugglan", "type": "user", "uri": "spotify:user:nugglan"}, "primary_color": null, "public": null, "snapshot_id": "ODk3OSxmMDJhOWY4YjVmYTM4ZDUxNzI4NTgwNWIzZmVlMjgwZjg1NTM0MzMw", "tracks": {"href": "https://api.spotify.com/v1/playlists/05c2GLNRRtxUqGxydc1xFZ/tracks", "total": 8352}, "type": "playlist", "uri": "spotify:playlist:05c2GLNRRtxUqGxydc1xFZ"}, {"collaborative": false, "description": "Latest ENglish Hits -- Personal Choice from Top 50 USA&#x2F;UK", "external_urls": {"spotify": "https://open.spotify.com/playlist/0v3swEJCpB4n1oe4XdwRmh"}, "href": "https://api.spotify.com/v1/playlists/0v3swEJCpB4n1oe4XdwRmh", "id": "0v3swEJCpB4n1oe4XdwRmh", "images": [{"height": 640, "url": "https://mosaic.scdn.co/640/ab67616d0000b27323852b7ef0ecfe29d38d97eeab67616d0000b2736b915e407b70e121e06fe979ab67616d0000b2739ccf08d3f74b36b7880522b5ab67616d0000b273ba5db46f4b838ef6027e6f96", "width": 640}, {"height": 300, "url": "https://mosaic.scdn.co/300/ab67616d0000b27323852b7ef0ecfe29d38d97eeab67616d0000b2736b915e407b70e121e06fe979ab67616d0000b2739ccf08d3f74b36b7880522b5ab67616d0000b273ba5db46f4b838ef6027e6f96", "width": 300}, {"height": 60, "url": "https://mosaic.scdn.co/60/ab67616d0000b27323852b7ef0ecfe29d38d97eeab67616d0000b2736b915e407b70e121e06fe979ab67616d0000b2739ccf08d3f74b36b7880522b5ab67616d0000b273ba5db46f4b838ef6027e6f96", "width": 60}], "name": "English Top Hits", "owner": {"display_name": "yabhinav", "external_urls": {"spotify": "https://open.spotify.com/user/hdxjmq1a2x2w08kbudlphrkyw"}, "href": "https://api.spotify.com/v1/users/hdxjmq1a2x2w08kbudlphrkyw", "id": "hdxjmq1a2x2w08kbudlphrkyw", "type": "user", "uri": "spotify:user:hdxjmq1a2x2w08kbudlphrkyw"}, "primary_color": null, "public": null, "snapshot_id": "MzUsNzA0MDExZDk2N2E4YmU1NGFjY2QwMjM5ZjA3OTljZGU3NjA3NWNjNA==", "tracks": {"href": "https://api.spotify.com/v1/playlists/0v3swEJCpB4n1oe4XdwRmh/tracks", "total": 27}, "type": "playlist", "uri": "spotify:playlist:0v3swEJCpB4n1oe4XdwRmh"}, {"collaborative": false, "description": "Top 50 Hits Songs USA - Top 50 United States top50top50 songs 2020", "external_urls": {"spotify": "https://open.spotify.com/playlist/5IMMxYtQ4fKKoiXvRDRH4q"}, "href": "https://api.spotify.com/v1/playlists/5IMMxYtQ4fKKoiXvRDRH4q", "id": "5IMMxYtQ4fKKoiXvRDRH4q", "images": [{"height": null, "url": "https://i.scdn.co/image/ab67706c0000bebb23ce35951423e76ff7529984", "width": null}], "name": "Top 50 - United States", "owner": {"display_name": "USA Top 50", "external_urls": {"spotify": "https://open.spotify.com/user/ua4u3u65yqujl6bdo0xz2tb9h"}, "href": "https://api.spotify.com/v1/users/ua4u3u65yqujl6bdo0xz2tb9h", "id": "ua4u3u65yqujl6bdo0xz2tb9h", "type": "user", "uri": "spotify:user:ua4u3u65yqujl6bdo0xz2tb9h"}, "primary_color": null, "public": null, "snapshot_id": "MjEyLGRmOWNkNzBjOTgxMjc1YzdhODlkZWEyMGI4OGU4ZTQyNWM3MDU1NTA=", "tracks": {"href": "https://api.spotify.com/v1/playlists/5IMMxYtQ4fKKoiXvRDRH4q/tracks", "total": 50}, "type": "playlist", "uri": "spotify:playlist:5IMMxYtQ4fKKoiXvRDRH4q"}, {"collaborative": false, "description": "The most played tracks right now in the USA | Featuring Justin Beiber, Olivia Rodrigo, Cardi B, David Guetta &amp; More!", "external_urls": {"spotify": "https://open.spotify.com/playlist/441Dm1tUV26h4TIn4BwDAe"}, "href": "https://api.spotify.com/v1/playlists/441Dm1tUV26h4TIn4BwDAe", "id": "441Dm1tUV26h4TIn4BwDAe", "images": [{"height": null, "url": "https://i.scdn.co/image/ab67706c0000bebb4e98ad01d6ce54472345cc84", "width": null}], "name": "Viral Top 50 - USA", "owner": {"display_name": "Advection", "external_urls": {"spotify": "https://open.spotify.com/user/93c7izqbrp4wf3p9i59bnmqun"}, "href": "https://api.spotify.com/v1/users/93c7izqbrp4wf3p9i59bnmqun", "id": "93c7izqbrp4wf3p9i59bnmqun", "type": "user", "uri": "spotify:user:93c7izqbrp4wf3p9i59bnmqun"}, "primary_color": null, "public": null, "snapshot_id": "Mjc4LDMzMTJjMzA1ZTg1MzNkMmI3YWZlYzRiMzE1ZTNjOTE0ZjgyZmY0MzI=", "tracks": {"href": "https://api.spotify.com/v1/playlists/441Dm1tUV26h4TIn4BwDAe/tracks", "total": 50}, "type": "playlist", "uri": "spotify:playlist:441Dm1tUV26h4TIn4BwDAe"}, {"collaborative": false, "description": "", "external_urls": {"spotify": "https://open.spotify.com/playlist/5Xn3N9AFF5EX5rorOxPJxC"}, "href": "https://api.spotify.com/v1/playlists/5Xn3N9AFF5EX5rorOxPJxC", "id": "5Xn3N9AFF5EX5rorOxPJxC", "images": [{"height": 640, "url": "https://mosaic.scdn.co/640/ab67616d0000b2732ca3ba8f334ca5a5f0312efbab67616d0000b273495ce6da9aeb159e94eaa453ab67616d0000b2737dd351028c93448824d07edbab67616d0000b273de03bfc2991fd5bcfde65ba3", "width": 640}, {"height": 300, "url": "https://mosaic.scdn.co/300/ab67616d0000b2732ca3ba8f334ca5a5f0312efbab67616d0000b273495ce6da9aeb159e94eaa453ab67616d0000b2737dd351028c93448824d07edbab67616d0000b273de03bfc2991fd5bcfde65ba3", "width": 300}, {"height": 60, "url": "https://mosaic.scdn.co/60/ab67616d0000b2732ca3ba8f334ca5a5f0312efbab67616d0000b273495ce6da9aeb159e94eaa453ab67616d0000b2737dd351028c93448824d07edbab67616d0000b273de03bfc2991fd5bcfde65ba3", "width": 60}], "name": "USA Top 50 - 160839", "owner": {"display_name": "pres.deanworks", "external_urls": {"spotify": "https://open.spotify.com/user/pres.deanworks"}, "href": "https://api.spotify.com/v1/users/pres.deanworks", "id": "pres.deanworks", "type": "user", "uri": "spotify:user:pres.deanworks"}, "primary_color": null, "public": null, "snapshot_id": "MTg1LGQyZmFjMzBlYTMxNTE0NzA3MDIzZGQwNDFiMzQzYmJlMGEwN2JiMmM=", "tracks": {"href": "https://api.spotify.com/v1/playlists/5Xn3N9AFF5EX5rorOxPJxC/tracks", "total": 112}, "type": "playlist", "uri": "spotify:playlist:5Xn3N9AFF5EX5rorOxPJxC"}, {"collaborative": false, "description": "warnings for: pegboard nerds - we are one (some mentions of alcohol usage) &#x2F; kuuro - close to hell (mentions of... hell and demons) &#x2F; kayzo - wait (shouting i guess?) &#x2F; juice wrld - come &amp; go (some mentions of drug usage...) &#x2F; kuuro - she&#x27;s got a gun (of course, many mentions of guns, etc.)", "external_urls": {"spotify": "https://open.spotify.com/playlist/6myeyGAbGlB6lkwofab5Lm"}, "href": "https://api.spotify.com/v1/playlists/6myeyGAbGlB6lkwofab5Lm", "id": "6myeyGAbGlB6lkwofab5Lm", "images": [{"height": null, "url": "https://i.scdn.co/image/ab67706c0000bebbfae9ab016af7396a528e3ab6", "width": null}], "name": "trec's epic amazing awesome top 50 songs", "owner": {"display_name": "trecccst", "external_urls": {"spotify": "https://open.spotify.com/user/dw6m5g0fswdrzzprb38m1aayo"}, "href": "https://api.spotify.com/v1/users/dw6m5g0fswdrzzprb38m1aayo", "id": "dw6m5g0fswdrzzprb38m1aayo", "type": "user", "uri": "spotify:user:dw6m5g0fswdrzzprb38m1aayo"}, "primary_color": null, "public": null, "snapshot_id": "NjEwLGU5MmJkNjQwOTk0ZDY4OGZlZWE2MzkxM2YzZjk0N2MwOWJkNzJhMDc=", "tracks": {"href": "https://api.spotify.com/v1/playlists/6myeyGAbGlB6lkwofab5Lm/tracks", "total": 51}, "type": "playlist", "uri": "spotify:playlist:6myeyGAbGlB6lkwofab5Lm"}], "limit": 20, "next": "https://api.spotify.com/v1/search?query=Top+50+-+USA&type=playlist&offset=20&limit=20", "offset": 0, "previous": null, "total": 30}}